%!PS-Adobe-3.0 EPSF-3.0
%%Creator: (MATLAB, The Mathworks, Inc. Version 9.10.0.1649659 \(R2021a\) Update 1. Operating System: Windows 10)
%%Title: ./student.eps
%%CreationDate: 2021-05-26T09:16:35
%%Pages: (atend)
%%BoundingBox:     5     4   381   298
%%LanguageLevel: 3
%%EndComments
%%BeginProlog
%%BeginResource: procset (Apache XML Graphics Std ProcSet) 1.2 0
%%Version: 1.2 0
%%Copyright: (Copyright 2001-2003,2010 The Apache Software Foundation. License terms: http://www.apache.org/licenses/LICENSE-2.0)
/bd{bind def}bind def
/ld{load def}bd
/GR/grestore ld
/GS/gsave ld
/RM/rmoveto ld
/C/curveto ld
/t/show ld
/L/lineto ld
/ML/setmiterlimit ld
/CT/concat ld
/f/fill ld
/N/newpath ld
/S/stroke ld
/CC/setcmykcolor ld
/A/ashow ld
/cp/closepath ld
/RC/setrgbcolor ld
/LJ/setlinejoin ld
/GC/setgray ld
/LW/setlinewidth ld
/M/moveto ld
/re {4 2 roll M
1 index 0 rlineto
0 exch rlineto
neg 0 rlineto
cp } bd
/_ctm matrix def
/_tm matrix def
/BT { _ctm currentmatrix pop matrix _tm copy pop 0 0 moveto } bd
/ET { _ctm setmatrix } bd
/iTm { _ctm setmatrix _tm concat } bd
/Tm { _tm astore pop iTm 0 0 moveto } bd
/ux 0.0 def
/uy 0.0 def
/F {
  /Tp exch def
  /Tf exch def
  Tf findfont Tp scalefont setfont
  /cf Tf def  /cs Tp def
} bd
/ULS {currentpoint /uy exch def /ux exch def} bd
/ULE {
  /Tcx currentpoint pop def
  gsave
  newpath
  cf findfont cs scalefont dup
  /FontMatrix get 0 get /Ts exch def /FontInfo get dup
  /UnderlinePosition get Ts mul /To exch def
  /UnderlineThickness get Ts mul /Tt exch def
  ux uy To add moveto  Tcx uy To add lineto
  Tt setlinewidth stroke
  grestore
} bd
/OLE {
  /Tcx currentpoint pop def
  gsave
  newpath
  cf findfont cs scalefont dup
  /FontMatrix get 0 get /Ts exch def /FontInfo get dup
  /UnderlinePosition get Ts mul /To exch def
  /UnderlineThickness get Ts mul /Tt exch def
  ux uy To add cs add moveto Tcx uy To add cs add lineto
  Tt setlinewidth stroke
  grestore
} bd
/SOE {
  /Tcx currentpoint pop def
  gsave
  newpath
  cf findfont cs scalefont dup
  /FontMatrix get 0 get /Ts exch def /FontInfo get dup
  /UnderlinePosition get Ts mul /To exch def
  /UnderlineThickness get Ts mul /Tt exch def
  ux uy To add cs 10 mul 26 idiv add moveto Tcx uy To add cs 10 mul 26 idiv add lineto
  Tt setlinewidth stroke
  grestore
} bd
/QT {
/Y22 exch store
/X22 exch store
/Y21 exch store
/X21 exch store
currentpoint
/Y21 load 2 mul add 3 div exch
/X21 load 2 mul add 3 div exch
/X21 load 2 mul /X22 load add 3 div
/Y21 load 2 mul /Y22 load add 3 div
/X22 load /Y22 load curveto
} bd
/SSPD {
dup length /d exch dict def
{
/v exch def
/k exch def
currentpagedevice k known {
/cpdv currentpagedevice k get def
v cpdv ne {
/upd false def
/nullv v type /nulltype eq def
/nullcpdv cpdv type /nulltype eq def
nullv nullcpdv or
{
/upd true def
} {
/sametype v type cpdv type eq def
sametype {
v type /arraytype eq {
/vlen v length def
/cpdvlen cpdv length def
vlen cpdvlen eq {
0 1 vlen 1 sub {
/i exch def
/obj v i get def
/cpdobj cpdv i get def
obj cpdobj ne {
/upd true def
exit
} if
} for
} {
/upd true def
} ifelse
} {
v type /dicttype eq {
v {
/dv exch def
/dk exch def
/cpddv cpdv dk get def
dv cpddv ne {
/upd true def
exit
} if
} forall
} {
/upd true def
} ifelse
} ifelse
} if
} ifelse
upd true eq {
d k v put
} if
} if
} if
} forall
d length 0 gt {
d setpagedevice
} if
} bd
/RE { % /NewFontName [NewEncodingArray] /FontName RE -
  findfont dup length dict begin
  {
    1 index /FID ne
    {def} {pop pop} ifelse
  } forall
  /Encoding exch def
  /FontName 1 index def
  currentdict definefont pop
  end
} bind def
%%EndResource
%%BeginResource: procset (Apache XML Graphics EPS ProcSet) 1.0 0
%%Version: 1.0 0
%%Copyright: (Copyright 2002-2003 The Apache Software Foundation. License terms: http://www.apache.org/licenses/LICENSE-2.0)
/BeginEPSF { %def
/b4_Inc_state save def         % Save state for cleanup
/dict_count countdictstack def % Count objects on dict stack
/op_count count 1 sub def      % Count objects on operand stack
userdict begin                 % Push userdict on dict stack
/showpage { } def              % Redefine showpage, { } = null proc
0 setgray 0 setlinecap         % Prepare graphics state
1 setlinewidth 0 setlinejoin
10 setmiterlimit [ ] 0 setdash newpath
/languagelevel where           % If level not equal to 1 then
{pop languagelevel             % set strokeadjust and
1 ne                           % overprint to their defaults.
{false setstrokeadjust false setoverprint
} if
} if
} bd
/EndEPSF { %def
count op_count sub {pop} repeat            % Clean up stacks
countdictstack dict_count sub {end} repeat
b4_Inc_state restore
} bd
%%EndResource
%FOPBeginFontDict
%%IncludeResource: font Courier-Oblique
%%IncludeResource: font Courier-BoldOblique
%%IncludeResource: font Courier-Bold
%%IncludeResource: font ZapfDingbats
%%IncludeResource: font Symbol
%%IncludeResource: font Helvetica
%%IncludeResource: font Helvetica-Oblique
%%IncludeResource: font Helvetica-Bold
%%IncludeResource: font Helvetica-BoldOblique
%%IncludeResource: font Times-Roman
%%IncludeResource: font Times-Italic
%%IncludeResource: font Times-Bold
%%IncludeResource: font Times-BoldItalic
%%IncludeResource: font Courier
%FOPEndFontDict
%%BeginResource: encoding WinAnsiEncoding
/WinAnsiEncoding [
/.notdef /.notdef /.notdef /.notdef /.notdef
/.notdef /.notdef /.notdef /.notdef /.notdef
/.notdef /.notdef /.notdef /.notdef /.notdef
/.notdef /.notdef /.notdef /.notdef /.notdef
/.notdef /.notdef /.notdef /.notdef /.notdef
/.notdef /.notdef /.notdef /.notdef /.notdef
/.notdef /.notdef /space /exclam /quotedbl
/numbersign /dollar /percent /ampersand /quotesingle
/parenleft /parenright /asterisk /plus /comma
/hyphen /period /slash /zero /one
/two /three /four /five /six
/seven /eight /nine /colon /semicolon
/less /equal /greater /question /at
/A /B /C /D /E
/F /G /H /I /J
/K /L /M /N /O
/P /Q /R /S /T
/U /V /W /X /Y
/Z /bracketleft /backslash /bracketright /asciicircum
/underscore /quoteleft /a /b /c
/d /e /f /g /h
/i /j /k /l /m
/n /o /p /q /r
/s /t /u /v /w
/x /y /z /braceleft /bar
/braceright /asciitilde /bullet /Euro /bullet
/quotesinglbase /florin /quotedblbase /ellipsis /dagger
/daggerdbl /circumflex /perthousand /Scaron /guilsinglleft
/OE /bullet /Zcaron /bullet /bullet
/quoteleft /quoteright /quotedblleft /quotedblright /bullet
/endash /emdash /asciitilde /trademark /scaron
/guilsinglright /oe /bullet /zcaron /Ydieresis
/space /exclamdown /cent /sterling /currency
/yen /brokenbar /section /dieresis /copyright
/ordfeminine /guillemotleft /logicalnot /sfthyphen /registered
/macron /degree /plusminus /twosuperior /threesuperior
/acute /mu /paragraph /middot /cedilla
/onesuperior /ordmasculine /guillemotright /onequarter /onehalf
/threequarters /questiondown /Agrave /Aacute /Acircumflex
/Atilde /Adieresis /Aring /AE /Ccedilla
/Egrave /Eacute /Ecircumflex /Edieresis /Igrave
/Iacute /Icircumflex /Idieresis /Eth /Ntilde
/Ograve /Oacute /Ocircumflex /Otilde /Odieresis
/multiply /Oslash /Ugrave /Uacute /Ucircumflex
/Udieresis /Yacute /Thorn /germandbls /agrave
/aacute /acircumflex /atilde /adieresis /aring
/ae /ccedilla /egrave /eacute /ecircumflex
/edieresis /igrave /iacute /icircumflex /idieresis
/eth /ntilde /ograve /oacute /ocircumflex
/otilde /odieresis /divide /oslash /ugrave
/uacute /ucircumflex /udieresis /yacute /thorn
/ydieresis
] def
%%EndResource
%FOPBeginFontReencode
/Courier-Oblique findfont
dup length dict begin
  {1 index /FID ne {def} {pop pop} ifelse} forall
  /Encoding WinAnsiEncoding def
  currentdict
end
/Courier-Oblique exch definefont pop
/Courier-BoldOblique findfont
dup length dict begin
  {1 index /FID ne {def} {pop pop} ifelse} forall
  /Encoding WinAnsiEncoding def
  currentdict
end
/Courier-BoldOblique exch definefont pop
/Courier-Bold findfont
dup length dict begin
  {1 index /FID ne {def} {pop pop} ifelse} forall
  /Encoding WinAnsiEncoding def
  currentdict
end
/Courier-Bold exch definefont pop
/Helvetica findfont
dup length dict begin
  {1 index /FID ne {def} {pop pop} ifelse} forall
  /Encoding WinAnsiEncoding def
  currentdict
end
/Helvetica exch definefont pop
/Helvetica-Oblique findfont
dup length dict begin
  {1 index /FID ne {def} {pop pop} ifelse} forall
  /Encoding WinAnsiEncoding def
  currentdict
end
/Helvetica-Oblique exch definefont pop
/Helvetica-Bold findfont
dup length dict begin
  {1 index /FID ne {def} {pop pop} ifelse} forall
  /Encoding WinAnsiEncoding def
  currentdict
end
/Helvetica-Bold exch definefont pop
/Helvetica-BoldOblique findfont
dup length dict begin
  {1 index /FID ne {def} {pop pop} ifelse} forall
  /Encoding WinAnsiEncoding def
  currentdict
end
/Helvetica-BoldOblique exch definefont pop
/Times-Roman findfont
dup length dict begin
  {1 index /FID ne {def} {pop pop} ifelse} forall
  /Encoding WinAnsiEncoding def
  currentdict
end
/Times-Roman exch definefont pop
/Times-Italic findfont
dup length dict begin
  {1 index /FID ne {def} {pop pop} ifelse} forall
  /Encoding WinAnsiEncoding def
  currentdict
end
/Times-Italic exch definefont pop
/Times-Bold findfont
dup length dict begin
  {1 index /FID ne {def} {pop pop} ifelse} forall
  /Encoding WinAnsiEncoding def
  currentdict
end
/Times-Bold exch definefont pop
/Times-BoldItalic findfont
dup length dict begin
  {1 index /FID ne {def} {pop pop} ifelse} forall
  /Encoding WinAnsiEncoding def
  currentdict
end
/Times-BoldItalic exch definefont pop
/Courier findfont
dup length dict begin
  {1 index /FID ne {def} {pop pop} ifelse} forall
  /Encoding WinAnsiEncoding def
  currentdict
end
/Courier exch definefont pop
%FOPEndFontReencode
%%EndProlog
%%Page: 1 1
%%PageBoundingBox: 0 0 420 315
%%BeginPageSetup
[1 0 0 -1 0 315] CT
%%EndPageSetup
GS
[0.75 0 0 0.75 0 0] CT
1 GC
N
0 0 560 420 re
f
GR
GS
[0.75 0 0 0.75 0 0] CT
1 GC
N
0 0 560 420 re
f
GR
GS
[0.75 0 0 0.75 0 0] CT
1 GC
N
78 347 M
507 347 L
507 31 L
78 31 L
cp
f
GR
GS
[0.75 0 0 0.75 0 0] CT
0.149 GC
2 setlinecap
1 LJ
0.667 LW
N
78 347 M
507 347 L
S
GR
GS
[0.75 0 0 0.75 0 0] CT
0.149 GC
2 setlinecap
1 LJ
0.667 LW
N
113.75 347 M
113.75 342.71 L
S
GR
GS
[0.75 0 0 0.75 0 0] CT
0.149 GC
2 setlinecap
1 LJ
0.667 LW
N
185.25 347 M
185.25 342.71 L
S
GR
GS
[0.75 0 0 0.75 0 0] CT
0.149 GC
2 setlinecap
1 LJ
0.667 LW
N
256.75 347 M
256.75 342.71 L
S
GR
GS
[0.75 0 0 0.75 0 0] CT
0.149 GC
2 setlinecap
1 LJ
0.667 LW
N
328.25 347 M
328.25 342.71 L
S
GR
GS
[0.75 0 0 0.75 0 0] CT
0.149 GC
2 setlinecap
1 LJ
0.667 LW
N
399.75 347 M
399.75 342.71 L
S
GR
GS
[0.75 0 0 0.75 0 0] CT
0.149 GC
2 setlinecap
1 LJ
0.667 LW
N
471.25 347 M
471.25 342.71 L
S
GR
GS
[0.75 0 0 0.75 85.3125 265.85001] CT
0.149 GC
/Helvetica 24 F
GS
[1 0 0 1 0 0] CT
-7 25 moveto 
1 -1 scale
(2) t 
GR
GR
GS
[0.75 0 0 0.75 138.9375 265.85001] CT
0.149 GC
/Helvetica 24 F
GS
[1 0 0 1 0 0] CT
-7 25 moveto 
1 -1 scale
(3) t 
GR
GR
GS
[0.75 0 0 0.75 192.5625 265.85001] CT
0.149 GC
/Helvetica 24 F
GS
[1 0 0 1 0 0] CT
-7 25 moveto 
1 -1 scale
(4) t 
GR
GR
GS
[0.75 0 0 0.75 246.1875 265.85001] CT
0.149 GC
/Helvetica 24 F
GS
[1 0 0 1 0 0] CT
-7 25 moveto 
1 -1 scale
(1) t 
GR
GR
GS
[0.75 0 0 0.75 299.8125 265.85001] CT
0.149 GC
/Helvetica 24 F
GS
[1 0 0 1 0 0] CT
-7 25 moveto 
1 -1 scale
(5) t 
GR
GR
GS
[0.75 0 0 0.75 353.4375 265.85001] CT
0.149 GC
/Helvetica 24 F
GS
[1 0 0 1 0 0] CT
-7 25 moveto 
1 -1 scale
(6) t 
GR
GR
GS
[0.75 0 0 0.75 219.37516 290.09999] CT
0.149 GC
/Helvetica 26.4 F
GS
[1 0 0 1 0 0] CT
-159.5 27 moveto 
1 -1 scale
(Runs in dec. order of mean) t 
GR
GR
GS
[0.75 0 0 0.75 0 0] CT
0.149 GC
2 setlinecap
1 LJ
0.667 LW
N
78 347 M
78 31 L
S
GR
GS
[0.75 0 0 0.75 0 0] CT
0.149 GC
2 setlinecap
1 LJ
0.667 LW
N
78 347 M
82.29 347 L
S
GR
GS
[0.75 0 0 0.75 0 0] CT
0.149 GC
2 setlinecap
1 LJ
0.667 LW
N
78 283.8 M
82.29 283.8 L
S
GR
GS
[0.75 0 0 0.75 0 0] CT
0.149 GC
2 setlinecap
1 LJ
0.667 LW
N
78 220.6 M
82.29 220.6 L
S
GR
GS
[0.75 0 0 0.75 0 0] CT
0.149 GC
2 setlinecap
1 LJ
0.667 LW
N
78 157.4 M
82.29 157.4 L
S
GR
GS
[0.75 0 0 0.75 0 0] CT
0.149 GC
2 setlinecap
1 LJ
0.667 LW
N
78 94.2 M
82.29 94.2 L
S
GR
GS
[0.75 0 0 0.75 0 0] CT
0.149 GC
2 setlinecap
1 LJ
0.667 LW
N
78 31 M
82.29 31 L
S
GR
GS
[0.75 0 0 0.75 52.9 260.25] CT
0.149 GC
/Helvetica 24 F
GS
[1 0 0 1 0 0] CT
-14 9.5 moveto 
1 -1 scale
(0) t 
GR
GR
GS
[0.75 0 0 0.75 52.9 212.84999] CT
0.149 GC
/Helvetica 24 F
GS
[1 0 0 1 0 0] CT
-34 9.5 moveto 
1 -1 scale
(0.2) t 
GR
GR
GS
[0.75 0 0 0.75 52.9 165.44999] CT
0.149 GC
/Helvetica 24 F
GS
[1 0 0 1 0 0] CT
-34 9.5 moveto 
1 -1 scale
(0.4) t 
GR
GR
GS
[0.75 0 0 0.75 52.9 118.05] CT
0.149 GC
/Helvetica 24 F
GS
[1 0 0 1 0 0] CT
-34 9.5 moveto 
1 -1 scale
(0.6) t 
GR
GR
GS
[0.75 0 0 0.75 52.9 70.65] CT
0.149 GC
/Helvetica 24 F
GS
[1 0 0 1 0 0] CT
-34 9.5 moveto 
1 -1 scale
(0.8) t 
GR
GR
GS
[0.75 0 0 0.75 52.9 23.25] CT
0.149 GC
/Helvetica 24 F
GS
[1 0 0 1 0 0] CT
-14 9.5 moveto 
1 -1 scale
(1) t 
GR
GR
GS
[0 -0.75 0.75 0 24.4 141.74989] CT
0.149 GC
/Helvetica 26.4 F
GS
[1 0 0 1 0 0] CT
-75.5 -6 moveto 
1 -1 scale
(Performance) t 
GR
GR
GS
[0.75 0 0 0.75 0 0] CT
0.8 0.889 0.948 RC
N
95.875 323.205 M
131.625 323.205 L
131.625 225.277 L
95.875 225.277 L
cp
167.375 324.943 M
203.125 324.943 L
203.125 277.417 L
167.375 277.417 L
cp
238.875 334.423 M
274.625 334.423 L
274.625 253.748 L
238.875 253.748 L
cp
310.375 336.698 M
346.125 336.698 L
346.125 282.094 L
310.375 282.094 L
cp
381.875 343.366 M
417.625 343.366 L
417.625 294.102 L
381.875 294.102 L
cp
453.375 340.174 M
489.125 340.174 L
489.125 302.539 L
453.375 302.539 L
cp
f
GR
GS
[0.75 0 0 0.75 0 0] CT
0.141 GC
1 LJ
1.333 LW
N
113.75 343.145 M
113.75 323.205 L
S
GR
GS
[0.75 0 0 0.75 0 0] CT
0.141 GC
1 LJ
1.333 LW
N
113.75 225.277 M
113.75 81.149 L
S
GR
GS
[0.75 0 0 0.75 0 0] CT
0.141 GC
1 LJ
1.333 LW
N
104.813 343.145 M
122.688 343.145 L
S
GR
GS
[0.75 0 0 0.75 0 0] CT
0.141 GC
1 LJ
1.333 LW
N
104.813 81.149 M
122.688 81.149 L
S
GR
GS
[0.75 0 0 0.75 0 0] CT
0.141 GC
1 LJ
1.333 LW
N
185.25 346.273 M
185.25 324.943 L
S
GR
GS
[0.75 0 0 0.75 0 0] CT
0.141 GC
1 LJ
1.333 LW
N
185.25 277.417 M
185.25 223.349 L
S
GR
GS
[0.75 0 0 0.75 0 0] CT
0.141 GC
1 LJ
1.333 LW
N
176.313 346.273 M
194.188 346.273 L
S
GR
GS
[0.75 0 0 0.75 0 0] CT
0.141 GC
1 LJ
1.333 LW
N
176.313 223.349 M
194.188 223.349 L
S
GR
GS
[0.75 0 0 0.75 0 0] CT
0.141 GC
1 LJ
1.333 LW
N
256.75 347 M
256.75 334.423 L
S
GR
GS
[0.75 0 0 0.75 0 0] CT
0.141 GC
1 LJ
1.333 LW
N
256.75 253.748 M
256.75 136.323 L
S
GR
GS
[0.75 0 0 0.75 0 0] CT
0.141 GC
1 LJ
1.333 LW
N
247.813 347 M
265.688 347 L
S
GR
GS
[0.75 0 0 0.75 0 0] CT
0.141 GC
1 LJ
1.333 LW
N
247.813 136.323 M
265.688 136.323 L
S
GR
GS
[0.75 0 0 0.75 0 0] CT
0.141 GC
1 LJ
1.333 LW
N
328.25 347 M
328.25 336.698 L
S
GR
GS
[0.75 0 0 0.75 0 0] CT
0.141 GC
1 LJ
1.333 LW
N
328.25 282.094 M
328.25 201.229 L
S
GR
GS
[0.75 0 0 0.75 0 0] CT
0.141 GC
1 LJ
1.333 LW
N
319.313 347 M
337.188 347 L
S
GR
GS
[0.75 0 0 0.75 0 0] CT
0.141 GC
1 LJ
1.333 LW
N
319.313 201.229 M
337.188 201.229 L
S
GR
GS
[0.75 0 0 0.75 0 0] CT
0.141 GC
1 LJ
1.333 LW
N
399.75 347 M
399.75 343.366 L
S
GR
GS
[0.75 0 0 0.75 0 0] CT
0.141 GC
1 LJ
1.333 LW
N
399.75 294.102 M
399.75 225.656 L
S
GR
GS
[0.75 0 0 0.75 0 0] CT
0.141 GC
1 LJ
1.333 LW
N
390.813 347 M
408.688 347 L
S
GR
GS
[0.75 0 0 0.75 0 0] CT
0.141 GC
1 LJ
1.333 LW
N
390.813 225.656 M
408.688 225.656 L
S
GR
GS
[0.75 0 0 0.75 0 0] CT
0.141 GC
1 LJ
1.333 LW
N
471.25 346.779 M
471.25 340.174 L
S
GR
GS
[0.75 0 0 0.75 0 0] CT
0.141 GC
1 LJ
1.333 LW
N
471.25 302.539 M
471.25 271.602 L
S
GR
GS
[0.75 0 0 0.75 0 0] CT
0.141 GC
1 LJ
1.333 LW
N
462.313 346.779 M
480.188 346.779 L
S
GR
GS
[0.75 0 0 0.75 0 0] CT
0.141 GC
1 LJ
1.333 LW
N
462.313 271.602 M
480.188 271.602 L
S
GR
GS
[0.75 0 0 0.75 0 0] CT
0 0.447 0.741 RC
1 LJ
1.333 LW
N
95.875 281.509 M
131.625 281.509 L
S
GR
GS
[0.75 0 0 0.75 0 0] CT
0 0.447 0.741 RC
1 LJ
1.333 LW
N
167.375 305.035 M
203.125 305.035 L
S
GR
GS
[0.75 0 0 0.75 0 0] CT
0 0.447 0.741 RC
1 LJ
1.333 LW
N
238.875 315.827 M
274.625 315.827 L
S
GR
GS
[0.75 0 0 0.75 0 0] CT
0 0.447 0.741 RC
1 LJ
1.333 LW
N
310.375 318.355 M
346.125 318.355 L
S
GR
GS
[0.75 0 0 0.75 0 0] CT
0 0.447 0.741 RC
1 LJ
1.333 LW
N
381.875 336.145 M
417.625 336.145 L
S
GR
GS
[0.75 0 0 0.75 0 0] CT
0 0.447 0.741 RC
1 LJ
1.333 LW
N
453.375 335.75 M
489.125 335.75 L
S
GR
GS
[0.75 0 0 0.75 0 0] CT
0 0.447 0.741 RC
10.0 ML
1.333 LW
N
95.875 323.205 M
131.625 323.205 L
131.625 323.205 L
131.625 225.277 L
131.625 225.277 L
95.875 225.277 L
95.875 225.277 L
95.875 323.205 L
S
GR
GS
[0.75 0 0 0.75 0 0] CT
0 0.447 0.741 RC
10.0 ML
1.333 LW
N
167.375 324.943 M
203.125 324.943 L
203.125 324.943 L
203.125 277.417 L
203.125 277.417 L
167.375 277.417 L
167.375 277.417 L
167.375 324.943 L
S
GR
GS
[0.75 0 0 0.75 0 0] CT
0 0.447 0.741 RC
10.0 ML
1.333 LW
N
238.875 334.423 M
274.625 334.423 L
274.625 334.423 L
274.625 253.748 L
274.625 253.748 L
238.875 253.748 L
238.875 253.748 L
238.875 334.423 L
S
GR
GS
[0.75 0 0 0.75 0 0] CT
0 0.447 0.741 RC
10.0 ML
1.333 LW
N
310.375 336.698 M
346.125 336.698 L
346.125 336.698 L
346.125 282.094 L
346.125 282.094 L
310.375 282.094 L
310.375 282.094 L
310.375 336.698 L
S
GR
GS
[0.75 0 0 0.75 0 0] CT
0 0.447 0.741 RC
10.0 ML
1.333 LW
N
381.875 343.366 M
417.625 343.366 L
417.625 343.366 L
417.625 294.102 L
417.625 294.102 L
381.875 294.102 L
381.875 294.102 L
381.875 343.366 L
S
GR
GS
[0.75 0 0 0.75 0 0] CT
0 0.447 0.741 RC
10.0 ML
1.333 LW
N
453.375 340.174 M
489.125 340.174 L
489.125 340.174 L
489.125 302.539 L
489.125 302.539 L
453.375 302.539 L
453.375 302.539 L
453.375 340.174 L
S
GR
GS
[0.75 0 0 0.75 138.9375 139.5459] CT
0 0.447 0.741 RC
N
0 -3.333 M
1.841 -3.333 3.333 -1.841 3.333 0 C
3.333 0 L
3.333 1.841 1.841 3.333 0 3.333 C
-1.841 3.333 -3.333 1.841 -3.333 0 C
-3.333 -1.841 -1.841 -3.333 0 -3.333 C
cp
0 -4.667 M
-2.577 -4.667 -4.667 -2.577 -4.667 0 C
-4.667 2.577 -2.577 4.667 0 4.667 C
2.577 4.667 4.667 2.577 4.667 0 C
4.667 0 L
4.667 -2.577 2.577 -4.667 0 -4.667 C
cp
f
GR
GS
[0.75 0 0 0.75 138.9375 133.19431] CT
0 0.447 0.741 RC
N
/f-1047702606{0 -3.333 M
1.841 -3.333 3.333 -1.841 3.333 0 C
3.333 0 L
3.333 1.841 1.841 3.333 0 3.333 C
-1.841 3.333 -3.333 1.841 -3.333 0 C
-3.333 -1.841 -1.841 -3.333 0 -3.333 C
cp
0 -4.667 M
-2.577 -4.667 -4.667 -2.577 -4.667 0 C
-4.667 2.577 -2.577 4.667 0 4.667 C
2.577 4.667 4.667 2.577 4.667 0 C
4.667 0 L
4.667 -2.577 2.577 -4.667 0 -4.667 C
cp}def
f-1047702606
f
GR
GS
[0.75 0 0 0.75 138.9375 153.9555] CT
0 0.447 0.741 RC
N
f-1047702606
f
GR
GS
[0.75 0 0 0.75 138.9375 93.16501] CT
0 0.447 0.741 RC
N
f-1047702606
f
GR
GS
[0.75 0 0 0.75 138.9375 114.6846] CT
0 0.447 0.741 RC
N
f-1047702606
f
GR
GS
[0.75 0 0 0.75 192.5625 93.0228] CT
0 0.447 0.741 RC
N
f-1047702606
f
GR
GS
[0.75 0 0 0.75 246.1875 133.19431] CT
0 0.447 0.741 RC
N
f-1047702606
f
GR
GS
[0.75 0 0 0.75 246.1875 105.0624] CT
0 0.447 0.741 RC
N
f-1047702606
f
GR
GS
[0.75 0 0 0.75 246.1875 114.6846] CT
0 0.447 0.741 RC
N
f-1047702606
f
GR
GS
[0.75 0 0 0.75 299.8125 136.0383] CT
0 0.447 0.741 RC
N
f-1047702606
f
GR
GS
[0.75 0 0 0.75 299.8125 162.03719] CT
0 0.447 0.741 RC
N
f-1047702606
f
GR
GS
[0.75 0 0 0.75 299.8125 118.45291] CT
0 0.447 0.741 RC
N
f-1047702606
f
GR
GS
[0.75 0 0 0.75 353.4375 139.30891] CT
0 0.447 0.741 RC
N
f-1047702606
f
GR
GS
[0.75 0 0 0.75 353.4375 162.3453] CT
0 0.447 0.741 RC
N
f-1047702606
f
GR
GS
[0.75 0 0 0.75 353.4375 172.41781] CT
0 0.447 0.741 RC
N
f-1047702606
f
GR
GS
[0.75 0 0 0.75 353.4375 183.3672] CT
0 0.447 0.741 RC
N
f-1047702606
f
GR
GS
[0.75 0 0 0.75 353.4375 164.6205] CT
0 0.447 0.741 RC
N
f-1047702606
f
GR
GS
[0.75 0 0 0.75 353.4375 122.71891] CT
0 0.447 0.741 RC
N
f-1047702606
f
GR
GS
[0.75 0 0 0.75 0 0] CT
0.851 0.325 0.098 RC
[2 2] 0 setdash
2 LJ
2.667 LW
N
113.75 270.951 M
185.25 289.163 L
256.75 289.941 L
328.25 300.559 L
399.75 313.105 L
471.25 313.954 L
S
GR
GS
[0.75 0 0 0.75 85.3125 203.2131] CT
0.851 0.325 0.098 RC
N
/f-1824262032{0 -5.333 M
2.946 -5.333 5.333 -2.946 5.333 0 C
5.333 0 L
5.333 2.946 2.946 5.333 0 5.333 C
-2.946 5.333 -5.333 2.946 -5.333 0 C
-5.333 -2.946 -2.946 -5.333 0 -5.333 C
cp
0 -8 M
-4.418 -8 -8 -4.418 -8 0 C
-8 4.418 -4.418 8 0 8 C
4.418 8 8 4.418 8 0 C
8 0 L
8 -4.418 4.418 -8 0 -8 C
cp}def
f-1824262032
f
GR
GS
[0.75 0 0 0.75 138.9375 216.8719] CT
0.851 0.325 0.098 RC
N
f-1824262032
f
GR
GS
[0.75 0 0 0.75 192.5625 217.45585] CT
0.851 0.325 0.098 RC
N
f-1824262032
f
GR
GS
[0.75 0 0 0.75 246.1875 225.41906] CT
0.851 0.325 0.098 RC
N
f-1824262032
f
GR
GS
[0.75 0 0 0.75 299.8125 234.8289] CT
0.851 0.325 0.098 RC
N
f-1824262032
f
GR
GS
[0.75 0 0 0.75 353.4375 235.46548] CT
0.851 0.325 0.098 RC
N
f-1824262032
f
GR
%%Trailer
%%Pages: 1
%%EOF
